<?xml version="1.0"?>
<!--
    - Base      : create
    - Stacks    : circles
    - 3d Sensor : kinect
-->    
<robot name="orobot" xmlns:xacro="http://ros.org/wiki/xacro">

  <xacro:include filename="$(find orobot_description)/urdf/orobot_library.urdf.xacro" />

  <create/>
  <stack_circles parent="base_link"/>
  <sensor_asus_xtion_pro  parent="base_link"/>
</robot>